module url-shortener

go 1.22.5

require (
	github.com/fatih/color v1.17.0
	github.com/go-chi/chi/v5 v5.1.0
	github.com/go-chi/render v1.0.3
	github.com/go-playground/validator/v10 v10.22.0
	github.com/ilyakaznacheev/cleanenv v1.5.0
	github.com/mattn/go-sqlite3 v1.14.22
	github.com/stretchr/testify v1.9.0
)

require (
	github.com/BurntSushi/toml v1.4.0 // indirect
	github.com/ajg/form v1.5.1 // indirect
	github.com/davecgh/go-spew v1.1.1 // indirect
	github.com/gabriel-vasile/mimetype v1.4.3 // indirect
	github.com/go-playground/locales v0.14.1 // indirect
	github.com/go-playground/universal-translator v0.18.1 // indirect
	github.com/joho/godotenv v1.5.1 // indirect
	github.com/leodido/go-urn v1.4.0 // indirect
	github.com/mattn/go-colorable v0.1.13 // indirect
	github.com/mattn/go-isatty v0.0.20 // indirect
	github.com/pmezard/go-difflib v1.0.0 // indirect
	github.com/stretchr/objx v0.5.2 // indirect
	golang.org/x/crypto v0.19.0 // indirect
	golang.org/x/net v0.21.0 // indirect
	golang.org/x/sys v0.18.0 // indirect
	golang.org/x/text v0.14.0 // indirect
	gopkg.in/yaml.v3 v3.0.1 // indirect
	olympos.io/encoding/edn v0.0.0-20201019073823-d3554ca0b0a3 // indirect
)
